<?xml version="1.0" encoding="UTF-8"?>
<glyph name="Euro" format="2">
	<advance width="502"/>
	<unicode hex="20AC"/>
	<outline>
		<contour>
			<point x="342" y="723" type="line"/>
			<point x="339" y="723" type="line" smooth="yes"/>
			<point x="230" y="723"/>
			<point x="140" y="634"/>
			<point x="140" y="524" type="curve" smooth="yes"/>
			<point x="140" y="521" type="line"/>
			<point x="140" y="202" type="line"/>
			<point x="140" y="199" type="line" smooth="yes"/>
			<point x="140" y="90"/>
			<point x="231" y="0"/>
			<point x="342" y="0" type="curve" smooth="yes"/>
			<point x="451" y="0" type="line"/>
			<point x="454" y="0" type="line"/>
			<point x="454" y="3" type="line"/>
			<point x="454" y="83" type="line"/>
			<point x="454" y="86" type="line"/>
			<point x="451" y="86" type="line"/>
			<point x="351" y="86" type="line"/>
			<point x="342" y="86" type="line" smooth="yes"/>
			<point x="277" y="86"/>
			<point x="226" y="138"/>
			<point x="226" y="202" type="curve" smooth="yes"/>
			<point x="226" y="521" type="line"/>
			<point x="226" y="524" type="line" smooth="yes"/>
			<point x="226" y="587"/>
			<point x="277" y="638"/>
			<point x="339" y="638" type="curve" smooth="yes"/>
			<point x="342" y="638" type="line"/>
			<point x="352" y="638" type="line"/>
			<point x="451" y="638" type="line"/>
			<point x="454" y="638" type="line"/>
			<point x="454" y="641" type="line"/>
			<point x="454" y="721" type="line"/>
			<point x="454" y="723" type="line"/>
			<point x="451" y="723" type="line"/>
		</contour>
		<contour>
			<point x="31" y="484" type="line"/>
			<point x="31" y="399" type="line"/>
			<point x="442" y="399" type="line"/>
			<point x="445" y="399" type="line"/>
			<point x="445" y="401" type="line"/>
			<point x="445" y="481" type="line"/>
			<point x="445" y="484" type="line"/>
			<point x="442" y="484" type="line"/>
		</contour>
		<contour>
			<point x="31" y="314" type="line"/>
			<point x="31" y="229" type="line"/>
			<point x="442" y="229" type="line"/>
			<point x="445" y="229" type="line"/>
			<point x="445" y="231" type="line"/>
			<point x="445" y="311" type="line"/>
			<point x="445" y="314" type="line"/>
			<point x="442" y="314" type="line"/>
		</contour>
	</outline>
</glyph>
