<?xml version="1.0" encoding="UTF-8"?>
<glyph name="T.small" format="2">
	<advance width="445"/>
	<outline>
		<contour>
			<point x="22" y="486" type="line"/>
			<point x="20" y="486" type="line"/>
			<point x="20" y="484" type="line"/>
			<point x="20" y="404" type="line"/>
			<point x="20" y="401" type="line"/>
			<point x="22" y="401" type="line"/>
			<point x="179" y="401" type="line"/>
			<point x="179" y="3" type="line"/>
			<point x="179" y="0" type="line"/>
			<point x="182" y="0" type="line"/>
			<point x="223" y="0" type="line"/>
			<point x="262" y="0" type="line"/>
			<point x="265" y="0" type="line"/>
			<point x="265" y="3" type="line"/>
			<point x="265" y="401" type="line"/>
			<point x="422" y="401" type="line"/>
			<point x="425" y="401" type="line"/>
			<point x="425" y="404" type="line"/>
			<point x="425" y="484" type="line"/>
			<point x="425" y="486" type="line"/>
			<point x="422" y="486" type="line"/>
		</contour>
	</outline>
	<lib>
		<dict>
			<key>com.schriftgestaltung.Glyphs.rightMetricsKey</key>
			<string>T</string>
		</dict>
	</lib>
</glyph>
